…
(
  d <-
  tibble(p_grid = seq(from = 0, to = 1, length.out = n),
         # note we're still using a flat uniform prior
         prior  = 1) %>% 
  mutate(likelihood = dbinom(n_success, size = n_trials, prob = p_grid)) %>% 
  mutate(posterior = (likelihood * prior) / sum(likelihood * prior))
)
```

```
## # A tibble: 1,000 × 4
##     p_grid prior likelihood posterior
##      <dbl> <dbl>      <dbl>     <dbl>
##  1 0           1   0         0       
##  2 0.00100     1   8.43e-17  8.43e-19
##  3 0.00200     1   5.38e-15  5.38e-17
##  4 0.00300     1   6.11e-14  6.11e-16
##  5 0.00400     1   3.42e-13  3.42e-15
##  6 0.00501     1   1.30e-12  1.30e-14
##  7 0.00601     1   3.87e-12  3.88e-14
##  8 0.00701     1   9.73e-12  9.74e-14
##  9 0.00801     1   2.16e-11  2.16e-13
## 10 0.00901     1   4.37e-11  4.38e-13
## # … with 990 more rows
```
…
# make the next part reproducible
set.seed(3)

# here's our new samples tibble
(
  samples <-
    d %>% 
    slice_sample(n = n_samples, weight_by = posterior, replace = T)
)
```

```
## # A tibble: 10,000 × 4
##    p_grid prior likelihood posterior
##     <dbl> <dbl>      <dbl>     <dbl>
##  1  0.717     1     0.368   0.00147 
##  2  0.652     1     0.277   0.00111 
##  3  0.548     1     0.164   0.000656
##  4  1         1     1       0.00400 
##  5  0.991     1     0.973   0.00389 
##  6  0.788     1     0.489   0.00195 
##  7  0.940     1     0.830   0.00332 
##  8  0.817     1     0.545   0.00218 
##  9  0.955     1     0.871   0.00348 
## 10  0.449     1     0.0908  0.000363
## # … with 9,990 more rows
```
…
(
  l <-
  d %>% 
  dplyr::select(p_grid) %>% 
  dplyr::rename(decision = p_grid) %>% 
  dplyr::mutate(weighted_average_loss = purrr::map(decision, make_loss)) %>% 
  tidyr::unnest(weighted_average_loss) 
)
```

```
## # A tibble: 1,000 × 2
##    decision weighted_average_loss
##       <dbl>                 <dbl>
##  1  0                       0.800
##  2  0.00100                 0.799
##  3  0.00200                 0.798
##  4  0.00300                 0.797
##  5  0.00400                 0.796
##  6  0.00501                 0.795
##  7  0.00601                 0.794
##  8  0.00701                 0.793
##  9  0.00801                 0.792
## 10  0.00901                 0.791
## # … with 990 more rows
```
…
