11.2 Poisson regression | Notes for Statistical Rethinking 2nd ed. by Richard McElreath
…
So now y holds 30 days of simulated counts of completed manuscripts.

Also suppose that your monastery is turning a tidy profit, so you are considering purchasing another monastery. Before purchasing, you’d like to know how productive the new monastery might be. Unfortunately, the current owners don’t keep daily records, so a head-to-head comparison of the daily totals isn’t possible. Instead, the owners keep weekly totals. Suppose the daily rate at the new monastery is actually \(\lambda = 0.5\) manuscripts per day. To simulate data on a weekly basis, we just multiply this average by 7, the exposure:

(
  d <- 
  tibble(y         = c(y, y_new), 
         days      = rep(c(1, 7), times = c(num_days, num_weeks)),  # this is the exposure
         monastery = rep(0:1, times = c(num_days, num_weeks))) %>%
  mutate(log_days = log(days))
)

## # A tibble: 34 × 4
##        y  days monastery log_days
##    <int> <dbl>     <int>    <dbl>
##  1     1     1         0        0
##  2     0     1         0        0
##  3     1     1         0        0
##  4     0     1         0        0
##  5     0     1         0        0
##  6     4     1         0        0
##  7     0     1         0        0
##  8     1     1         0        0
##  9     3     1         0        0
## 10     0     1         0        0
## # … with 24 more rows
…
