12.5 Multilevel posterior predictions | Notes for Statistical Rethinking 2nd ed. by Richard McElreath
…
f <-
  post %>% 
  pivot_longer(b_b_treatment1:b_b_treatment4) %>% 
  mutate(fitted = inv_logit_scaled(b_a_Intercept + value + `r_actor__a[1,Intercept]` + `r_block__a[1,Intercept]`)) %>% 
  mutate(treatment = factor(str_remove(name, "b_b_treatment"),
                            labels = labels)) %>% 
  dplyr::select(name:treatment)

f

## # A tibble: 16,000 × 4
##    name             value fitted treatment
##    <chr>            <dbl>  <dbl> <fct>    
##  1 b_b_treatment1  0.0459  0.345 R/N      
##  2 b_b_treatment2  0.528   0.460 L/N      
##  3 b_b_treatment3 -0.653   0.207 R/P      
##  4 b_b_treatment4  0.627   0.485 L/P      
##  5 b_b_treatment1  0.194   0.305 R/N      
##  6 b_b_treatment2  0.608   0.400 L/N      
##  7 b_b_treatment3 -0.608   0.165 R/P      
##  8 b_b_treatment4  0.622   0.403 L/P      
##  9 b_b_treatment1 -0.144   0.289 R/N      
## 10 b_b_treatment2  0.664   0.477 L/N      
## # … with 15,990 more rows
…
f <-
  post %>% 
  mutate(iter = 1:n()) %>% 
  slice_sample(n = n_chimps) %>% 
  # simulated chimpanzees
  mutate(a_sim = rnorm(n(), mean = b_a_Intercept, sd = sd_actor__a_Intercept)) %>% 
  pivot_longer(b_b_treatment1:b_b_treatment4) %>% 
  mutate(fitted = inv_logit_scaled(a_sim + value)) %>% 
  mutate(treatment = factor(str_remove(name, "b_b_treatment"),
                            labels = labels)) %>% 
  dplyr::select(iter:treatment)

f

## # A tibble: 400 × 6
##     iter  a_sim name            value   fitted treatment
##    <int>  <dbl> <chr>           <dbl>    <dbl> <fct>    
##  1  1496 -6.53  b_b_treatment1 -1.03  0.000523 R/N      
##  2  1496 -6.53  b_b_treatment2 -0.214 0.00118  L/N      
##  3  1496 -6.53  b_b_treatment3 -1.80  0.000241 R/P      
##  4  1496 -6.53  b_b_treatment4 -0.561 0.000832 L/P      
##  5  3843 -0.978 b_b_treatment1 -0.100 0.254    R/N      
##  6  3843 -0.978 b_b_treatment2  0.444 0.370    L/N      
##  7  3843 -0.978 b_b_treatment3 -0.571 0.175    R/P      
##  8  3843 -0.978 b_b_treatment4  0.329 0.343    L/P      
##  9   960  1.39  b_b_treatment1 -0.114 0.782    R/N      
## 10   960  1.39  b_b_treatment2  0.522 0.871    L/N      
## # … with 390 more rows
…
