3.2 Sampling to summarize | Notes for Statistical Rethinking 2nd ed. by Richard McElreath
…
# make the next part reproducible
set.seed(3)

# here's our new samples tibble
(
  samples <-
    d %>% 
    slice_sample(n = n_samples, weight_by = posterior, replace = T)
)

## # A tibble: 10,000 × 4
##    p_grid prior likelihood posterior
##     <dbl> <dbl>      <dbl>     <dbl>
##  1  0.717     1     0.368   0.00147 
##  2  0.652     1     0.277   0.00111 
##  3  0.548     1     0.164   0.000656
##  4  1         1     1       0.00400 
##  5  0.991     1     0.973   0.00389 
##  6  0.788     1     0.489   0.00195 
##  7  0.940     1     0.830   0.00332 
##  8  0.817     1     0.545   0.00218 
##  9  0.955     1     0.871   0.00348 
## 10  0.449     1     0.0908  0.000363
## # … with 9,990 more rows
…
(
  l <-
  d %>% 
  dplyr::select(p_grid) %>% 
  dplyr::rename(decision = p_grid) %>% 
  dplyr::mutate(weighted_average_loss = purrr::map(decision, make_loss)) %>% 
  tidyr::unnest(weighted_average_loss) 
)

## # A tibble: 1,000 × 2
##    decision weighted_average_loss
##       <dbl>                 <dbl>
##  1  0                       0.800
##  2  0.00100                 0.799
##  3  0.00200                 0.798
##  4  0.00300                 0.797
##  5  0.00400                 0.796
##  6  0.00501                 0.795
##  7  0.00601                 0.794
##  8  0.00701                 0.793
##  9  0.00801                 0.792
## 10  0.00901                 0.791
## # … with 990 more rows
…
