7.2 Entropy and accuracy | Notes for Statistical Rethinking 2nd ed. by Richard McElreath
…
prob

## # A tibble: 28,000 × 4
##        s species     logprob  prob
##    <int> <chr>         <dbl> <dbl>
##  1     1 afarensis    0.769  2.16 
##  2     1 africanus    0.837  2.31 
##  3     1 habilis      0.647  1.91 
##  4     1 boisei       0.690  1.99 
##  5     1 rudolfensis  0.140  1.15 
##  6     1 ergaster    -0.0126 0.987
##  7     1 sapiens     -0.497  0.608
##  8     2 afarensis    0.396  1.49 
##  9     2 africanus    0.479  1.61 
## 10     2 habilis      0.768  2.16 
## # … with 27,990 more rows
…
